BOOL101,POE\Main\Code.GB,1,IN,5,15,Read,,BOOL,NSIX0.0,,VAR_GLOBAL,GLOBAL,,
BOOL101,POE\Main\Code.GB,1,IN,4,15,Read,,BOOL,NSIX0.0,,VAR_GLOBAL,GLOBAL,,
CfgReady,C\PLC\R\CPU\global_variables.vbb,0,,4,0,,,BOOL,NSQX0.0,,VAR_GLOBAL,NOT USED,,
Huj,POE\Main\Code.GB,1,OUT,6,55,Write,,BOOL,,,VAR_GLOBAL,GLOBAL,,
